Data Wrangling
…
--

.large[
**Step 1:** What data do I start with?

```r
penguins
```

```
## # A tibble: 344 × 8
##    species   island    bill_length_mm bill_depth_mm flipper_length_… body_mass_g
##    <fct>     <fct>              <dbl>         <dbl>            <int>       <int>
##  1 Adelie    Torgersen           39.3          20.6              190        3650
##  2 Gentoo    Biscoe              51.1          16.5              225        5250
##  3 Chinstrap Dream               51.4          19                201        3950
##  4 Gentoo    Biscoe              50            15.2              218        5700
##  5 Gentoo    Biscoe              45.5          15                220        5000
##  6 Adelie    Dream               39.6          18.1              186        4450
##  7 Adelie    Torgersen           35.1          19.4              193        4200
##  8 Adelie    Biscoe              35            17.9              192        3725
##  9 Chinstrap Dream               46.5          17.9              192        3500
## 10 Adelie    Torgersen           34.6          17.2              189        3200
## # … with 334 more rows, and 2 more variables: sex <fct>, year <int>
```
…
.large[
.question[
We have three species of penguin (Adelie, Chinstrap, Gentoo). Let's make a subset with just the Chinstrap penguins.
]

**Step 2:** What do I do to that data?

```r
penguins %>%
  filter(species == "Chinstrap")
```
]

```
## # A tibble: 68 × 8
##    species   island bill_length_mm bill_depth_mm flipper_length_mm body_mass_g
##    <fct>     <fct>           <dbl>         <dbl>             <int>       <int>
##  1 Chinstrap Dream            51.4          19                 201        3950
##  2 Chinstrap Dream            46.5          17.9               192        3500
##  3 Chinstrap Dream            49.2          18.2               195        4400
##  4 Chinstrap Dream            40.9          16.6               187        3200
##  5 Chinstrap Dream            52            19                 197        4150
##  6 Chinstrap Dream            49.8          17.3               198        3675
##  7 Chinstrap Dream            42.5          17.3               187        3350
##  8 Chinstrap Dream            52.2          18.8               197        3450
##  9 Chinstrap Dream            51.7          20.3               194        3775
## 10 Chinstrap Dream            50.2          18.8               202        3800
## # … with 58 more rows, and 2 more variables: sex <fct>, year <int>
```
…
```r
chinstrap_penguins <- penguins %>% 
  filter(species == "Chinstrap")

chinstrap_penguins
```

]

```
## # A tibble: 68 × 8
##    species   island bill_length_mm bill_depth_mm flipper_length_mm body_mass_g
##    <fct>     <fct>           <dbl>         <dbl>             <int>       <int>
##  1 Chinstrap Dream            51.4          19                 201        3950
##  2 Chinstrap Dream            46.5          17.9               192        3500
##  3 Chinstrap Dream            49.2          18.2               195        4400
##  4 Chinstrap Dream            40.9          16.6               187        3200
##  5 Chinstrap Dream            52            19                 197        4150
##  6 Chinstrap Dream            49.8          17.3               198        3675
##  7 Chinstrap Dream            42.5          17.3               187        3350
##  8 Chinstrap Dream            52.2          18.8               197        3450
##  9 Chinstrap Dream            51.7          20.3               194        3775
## 10 Chinstrap Dream            50.2          18.8               202        3800
## # … with 58 more rows, and 2 more variables: sex <fct>, year <int>
```
…
--

.large[
**Step 1:** What data do I start with?

```r
chinstrap_penguins
```

```
## # A tibble: 68 × 8
##    species   island bill_length_mm bill_depth_mm flipper_length_mm body_mass_g
##    <fct>     <fct>           <dbl>         <dbl>             <int>       <int>
##  1 Chinstrap Dream            51.4          19                 201        3950
##  2 Chinstrap Dream            46.5          17.9               192        3500
##  3 Chinstrap Dream            49.2          18.2               195        4400
##  4 Chinstrap Dream            40.9          16.6               187        3200
##  5 Chinstrap Dream            52            19                 197        4150
##  6 Chinstrap Dream            49.8          17.3               198        3675
##  7 Chinstrap Dream            42.5          17.3               187        3350
##  8 Chinstrap Dream            52.2          18.8               197        3450
##  9 Chinstrap Dream            51.7          20.3               194        3775
## 10 Chinstrap Dream            50.2          18.8               202        3800
## # … with 58 more rows, and 2 more variables: sex <fct>, year <int>
```
…
